+-------+-----------+
| C0(0) | 0.7969    |
+-------+-----------+
| C0(1) | 0.0511136 |
+-------+-----------+
| C0(2) | 0.0357682 |
+-------+-----------+
| C0(3) | 0.0272455 |
+-------+-----------+
| C0(4) | 0.0889727 |
+-------+-----------+
+-------+------------------------+------------------------+------------------------+-------+-------+-------+-------+-------+-------+----------------------+-------+-------+-------+-------+-------+-------+-------+---------------------+-------+-------+-------+-------+-------+-------+-------+---------------------+-------+-------+-------+-------+-------+-------+-------+-----------------------+-------+-------+-------+-------+-------+-------+
| C0    | C0(0)                  | C0(0)                  | C0(0)                  | C0(0) | C0(0) | C0(0) | C0(0) | C0(0) | C0(1) | C0(1)                | C0(1) | C0(1) | C0(1) | C0(1) | C0(1) | C0(1) | C0(2) | C0(2)               | C0(2) | C0(2) | C0(2) | C0(2) | C0(2) | C0(2) | C0(3) | C0(3)               | C0(3) | C0(3) | C0(3) | C0(3) | C0(3) | C0(3) | C0(4) | C0(4)                 | C0(4) | C0(4) | C0(4) | C0(4) | C0(4) | C0(4) |
+-------+------------------------+------------------------+------------------------+-------+-------+-------+-------+-------+-------+----------------------+-------+-------+-------+-------+-------+-------+-------+---------------------+-------+-------+-------+-------+-------+-------+-------+---------------------+-------+-------+-------+-------+-------+-------+-------+-----------------------+-------+-------+-------+-------+-------+-------+
| M0    | M0(0)                  | M0(1)                  | M0(2)                  | M0(3) | M0(4) | M0(5) | M0(6) | M0(7) | M0(0) | M0(1)                | M0(2) | M0(3) | M0(4) | M0(5) | M0(6) | M0(7) | M0(0) | M0(1)               | M0(2) | M0(3) | M0(4) | M0(5) | M0(6) | M0(7) | M0(0) | M0(1)               | M0(2) | M0(3) | M0(4) | M0(5) | M0(6) | M0(7) | M0(0) | M0(1)                 | M0(2) | M0(3) | M0(4) | M0(5) | M0(6) | M0(7) |
+-------+------------------------+------------------------+------------------------+-------+-------+-------+-------+-------+-------+----------------------+-------+-------+-------+-------+-------+-------+-------+---------------------+-------+-------+-------+-------+-------+-------+-------+---------------------+-------+-------+-------+-------+-------+-------+-------+-----------------------+-------+-------+-------+-------+-------+-------+
| L0(0) | 0.9995288759766009     | 0.999950127175702      | 0.9999673884685625     | 1.0   | 1.0   | 1.0   | 1.0   | 0.5   | 0.5   | 0.9910536779324056   | 1.0   | 1.0   | 1.0   | 1.0   | 1.0   | 0.5   | 0.5   | 0.9908814589665653  | 1.0   | 1.0   | 1.0   | 1.0   | 1.0   | 0.5   | 0.5   | 0.9371069182389937  | 1.0   | 1.0   | 1.0   | 1.0   | 1.0   | 0.5   | 0.5   | 0.9963503649635036    | 1.0   | 1.0   | 1.0   | 1.0   | 1.0   | 1.0   |
+-------+------------------------+------------------------+------------------------+-------+-------+-------+-------+-------+-------+----------------------+-------+-------+-------+-------+-------+-------+-------+---------------------+-------+-------+-------+-------+-------+-------+-------+---------------------+-------+-------+-------+-------+-------+-------+-------+-----------------------+-------+-------+-------+-------+-------+-------+
| L0(1) | 0.00047112402339915985 | 4.9872824298039995e-05 | 3.2611531437516305e-05 | 0.0   | 0.0   | 0.0   | 0.0   | 0.5   | 0.5   | 0.008946322067594433 | 0.0   | 0.0   | 0.0   | 0.0   | 0.0   | 0.5   | 0.5   | 0.00911854103343465 | 0.0   | 0.0   | 0.0   | 0.0   | 0.0   | 0.5   | 0.5   | 0.06289308176100629 | 0.0   | 0.0   | 0.0   | 0.0   | 0.0   | 0.5   | 0.5   | 0.0036496350364963502 | 0.0   | 0.0   | 0.0   | 0.0   | 0.0   | 0.0   |
+-------+------------------------+------------------------+------------------------+-------+-------+-------+-------+-------+-------+----------------------+-------+-------+-------+-------+-------+-------+-------+---------------------+-------+-------+-------+-------+-------+-------+-------+---------------------+-------+-------+-------+-------+-------+-------+-------+-----------------------+-------+-------+-------+-------+-------+-------+
+-------+-----------+
| M0(0) | 0.231555  |
+-------+-----------+
| M0(1) | 0.192809  |
+-------+-----------+
| M0(2) | 0.145036  |
+-------+-----------+
| M0(3) | 0.124764  |
+-------+-----------+
| M0(4) | 0.0931727 |
+-------+-----------+
| M0(5) | 0.117005  |
+-------+-----------+
| M0(6) | 0.0758727 |
+-------+-----------+
| M0(7) | 0.0197864 |
+-------+-----------+
+------+-------+-------+-------+-------+-------+-------+-------+-------+-------+--------------------+-------+-------+-------+---------------------+-------+-------+
| L0   | L0(0) | L0(0) | L0(0) | L0(0) | L0(0) | L0(0) | L0(0) | L0(0) | L0(1) | L0(1)              | L0(1) | L0(1) | L0(1) | L0(1)               | L0(1) | L0(1) |
+------+-------+-------+-------+-------+-------+-------+-------+-------+-------+--------------------+-------+-------+-------+---------------------+-------+-------+
| T    | T(0)  | T(1)  | T(2)  | T(3)  | T(4)  | T(5)  | T(6)  | T(7)  | T(0)  | T(1)               | T(2)  | T(3)  | T(4)  | T(5)                | T(6)  | T(7)  |
+------+-------+-------+-------+-------+-------+-------+-------+-------+-------+--------------------+-------+-------+-------+---------------------+-------+-------+
| R(0) | 1.0   | 1.0   | 1.0   | 1.0   | 1.0   | 1.0   | 1.0   | 1.0   | 0.0   | 0.2222222222222222 | 0.0   | 1.0   | 1.0   | 0.9230769230769231  | 1.0   | 1.0   |
+------+-------+-------+-------+-------+-------+-------+-------+-------+-------+--------------------+-------+-------+-------+---------------------+-------+-------+
| R(1) | 0.0   | 0.0   | 0.0   | 0.0   | 0.0   | 0.0   | 0.0   | 0.0   | 1.0   | 0.7777777777777778 | 1.0   | 0.0   | 0.0   | 0.07692307692307693 | 0.0   | 0.0   |
+------+-------+-------+-------+-------+-------+-------+-------+-------+-------+--------------------+-------+-------+-------+---------------------+-------+-------+
+------+-----------+
| T(0) | 0.0181818 |
+------+-----------+
| T(1) | 0.0237182 |
+------+-----------+
| T(2) | 0.0218955 |
+------+-----------+
| T(3) | 0.0363773 |
+------+-----------+
| T(4) | 0.0539864 |
+------+-----------+
| T(5) | 0.157305  |
+------+-----------+
| T(6) | 0.262086  |
+------+-----------+
| T(7) | 0.42645   |
+------+-----------+