+-------+-----------+
| C0(0) | 0.764905  |
+-------+-----------+
| C0(1) | 0.0557091 |
+-------+-----------+
| C0(2) | 0.0590727 |
+-------+-----------+
| C0(3) | 0.0368136 |
+-------+-----------+
| C0(4) | 0.0835    |
+-------+-----------+
+-------+-----------------------+-----------------------+-----------------------+------------------------+-------+-------+-------+-------+-------+-------+-------+-----------------------+-------+-------+-------+-------+-------+-------+-------+-------+-----------------------+-------+-------+-------+-------+-------+-------+-------+----------------------+-------+-------+-------+-------+-------+-------+-------+-------+-------+-------+-------+
| C0    | C0(0)                 | C0(0)                 | C0(0)                 | C0(0)                  | C0(0) | C0(0) | C0(0) | C0(0) | C0(1) | C0(1) | C0(1) | C0(1)                 | C0(1) | C0(1) | C0(1) | C0(1) | C0(2) | C0(2) | C0(2) | C0(2) | C0(2)                 | C0(2) | C0(2) | C0(2) | C0(3) | C0(3) | C0(3) | C0(3) | C0(3)                | C0(3) | C0(3) | C0(3) | C0(4) | C0(4) | C0(4) | C0(4) | C0(4) | C0(4) | C0(4) | C0(4) |
+-------+-----------------------+-----------------------+-----------------------+------------------------+-------+-------+-------+-------+-------+-------+-------+-----------------------+-------+-------+-------+-------+-------+-------+-------+-------+-----------------------+-------+-------+-------+-------+-------+-------+-------+----------------------+-------+-------+-------+-------+-------+-------+-------+-------+-------+-------+-------+
| M0    | M0(0)                 | M0(1)                 | M0(2)                 | M0(3)                  | M0(4) | M0(5) | M0(6) | M0(7) | M0(0) | M0(1) | M0(2) | M0(3)                 | M0(4) | M0(5) | M0(6) | M0(7) | M0(0) | M0(1) | M0(2) | M0(3) | M0(4)                 | M0(5) | M0(6) | M0(7) | M0(0) | M0(1) | M0(2) | M0(3) | M0(4)                | M0(5) | M0(6) | M0(7) | M0(0) | M0(1) | M0(2) | M0(3) | M0(4) | M0(5) | M0(6) | M0(7) |
+-------+-----------------------+-----------------------+-----------------------+------------------------+-------+-------+-------+-------+-------+-------+-------+-----------------------+-------+-------+-------+-------+-------+-------+-------+-------+-----------------------+-------+-------+-------+-------+-------+-------+-------+----------------------+-------+-------+-------+-------+-------+-------+-------+-------+-------+-------+-------+
| L0(0) | 0.9996328644303601    | 0.9999222455485577    | 0.9993812732022549    | 0.9998122682686441     | 1.0   | 1.0   | 1.0   | 0.5   | 1.0   | 1.0   | 0.5   | 0.9961977186311787    | 1.0   | 1.0   | 1.0   | 0.5   | 0.5   | 0.5   | 0.5   | 1.0   | 0.9986291980808774    | 1.0   | 1.0   | 0.5   | 0.5   | 0.5   | 0.5   | 1.0   | 0.9989071038251366   | 1.0   | 1.0   | 0.5   | 0.5   | 0.5   | 0.5   | 1.0   | 1.0   | 1.0   | 1.0   | 1.0   |
+-------+-----------------------+-----------------------+-----------------------+------------------------+-------+-------+-------+-------+-------+-------+-------+-----------------------+-------+-------+-------+-------+-------+-------+-------+-------+-----------------------+-------+-------+-------+-------+-------+-------+-------+----------------------+-------+-------+-------+-------+-------+-------+-------+-------+-------+-------+-------+
| L0(1) | 0.0003671355696398207 | 7.775445144234507e-05 | 0.0006187267977450845 | 0.00018773173135589244 | 0.0   | 0.0   | 0.0   | 0.5   | 0.0   | 0.0   | 0.5   | 0.0038022813688212928 | 0.0   | 0.0   | 0.0   | 0.5   | 0.5   | 0.5   | 0.5   | 0.0   | 0.0013708019191226869 | 0.0   | 0.0   | 0.5   | 0.5   | 0.5   | 0.5   | 0.0   | 0.001092896174863388 | 0.0   | 0.0   | 0.5   | 0.5   | 0.5   | 0.5   | 0.0   | 0.0   | 0.0   | 0.0   | 0.0   |
+-------+-----------------------+-----------------------+-----------------------+------------------------+-------+-------+-------+-------+-------+-------+-------+-----------------------+-------+-------+-------+-------+-------+-------+-------+-------+-----------------------+-------+-------+-------+-------+-------+-------+-------+----------------------+-------+-------+-------+-------+-------+-------+-------+-------+-------+-------+-------+
+-------+-------------+
| M0(0) | 0.235268    |
+-------+-------------+
| M0(1) | 0.175845    |
+-------+-------------+
| M0(2) | 0.132236    |
+-------+-------------+
| M0(3) | 0.114523    |
+-------+-------------+
| M0(4) | 0.112332    |
+-------+-------------+
| M0(5) | 0.181895    |
+-------+-------------+
| M0(6) | 0.0475091   |
+-------+-------------+
| M0(7) | 0.000390909 |
+-------+-------------+
+------+-------+-------+-------+-------+-------+-------+-------+-------+-------+-------+-------+-------+---------------------+-------+-------+-------+
| L0   | L0(0) | L0(0) | L0(0) | L0(0) | L0(0) | L0(0) | L0(0) | L0(0) | L0(1) | L0(1) | L0(1) | L0(1) | L0(1)               | L0(1) | L0(1) | L0(1) |
+------+-------+-------+-------+-------+-------+-------+-------+-------+-------+-------+-------+-------+---------------------+-------+-------+-------+
| T    | T(0)  | T(1)  | T(2)  | T(3)  | T(4)  | T(5)  | T(6)  | T(7)  | T(0)  | T(1)  | T(2)  | T(3)  | T(4)                | T(5)  | T(6)  | T(7)  |
+------+-------+-------+-------+-------+-------+-------+-------+-------+-------+-------+-------+-------+---------------------+-------+-------+-------+
| R(0) | 1.0   | 1.0   | 1.0   | 1.0   | 1.0   | 1.0   | 1.0   | 1.0   | 0.5   | 0.0   | 0.5   | 0.5   | 0.36363636363636365 | 1.0   | 1.0   | 1.0   |
+------+-------+-------+-------+-------+-------+-------+-------+-------+-------+-------+-------+-------+---------------------+-------+-------+-------+
| R(1) | 0.0   | 0.0   | 0.0   | 0.0   | 0.0   | 0.0   | 0.0   | 0.0   | 0.5   | 1.0   | 0.5   | 0.5   | 0.6363636363636364  | 0.0   | 0.0   | 0.0   |
+------+-------+-------+-------+-------+-------+-------+-------+-------+-------+-------+-------+-------+---------------------+-------+-------+-------+
+------+-----------+
| T(0) | 0.0183273 |
+------+-----------+
| T(1) | 0.0184318 |
+------+-----------+
| T(2) | 0.0181864 |
+------+-----------+
| T(3) | 0.0278909 |
+------+-----------+
| T(4) | 0.0684318 |
+------+-----------+
| T(5) | 0.211027  |
+------+-----------+
| T(6) | 0.364164  |
+------+-----------+
| T(7) | 0.273541  |
+------+-----------+